<?xml version="1.0" encoding="UTF-8" standalone="no"?>
<!-- Generator: Adobe Illustrator 21.0.2, SVG Export Plug-In . SVG Version: 6.00 Build 0)  -->

<svg
   xmlns:dc="http://purl.org/dc/elements/1.1/"
   xmlns:cc="http://creativecommons.org/ns#"
   xmlns:rdf="http://www.w3.org/1999/02/22-rdf-syntax-ns#"
   xmlns:svg="http://www.w3.org/2000/svg"
   xmlns="http://www.w3.org/2000/svg"
   xmlns:sodipodi="http://sodipodi.sourceforge.net/DTD/sodipodi-0.dtd"
   xmlns:inkscape="http://www.inkscape.org/namespaces/inkscape"
   version="1.1"
   id="Layer_1"
   x="0px"
   y="0px"
   viewBox="0 0 1068 1200"
   style="enable-background:new 0 0 1068 1200;"
   xml:space="preserve"
   sodipodi:docname="trojan-logo.svg"
   inkscape:version="0.92.2 (5c3e80d, 2017-08-06)"><metadata
     id="metadata9"><rdf:RDF><cc:Work
         rdf:about=""><dc:format>image/svg+xml</dc:format><dc:type
           rdf:resource="http://purl.org/dc/dcmitype/StillImage" /></cc:Work></rdf:RDF></metadata><defs
     id="defs7" /><sodipodi:namedview
     pagecolor="#ffffff"
     bordercolor="#666666"
     borderopacity="1"
     objecttolerance="10"
     gridtolerance="10"
     guidetolerance="10"
     inkscape:pageopacity="0"
     inkscape:pageshadow="2"
     inkscape:window-width="1920"
     inkscape:window-height="1000"
     id="namedview5"
     showgrid="false"
     inkscape:zoom="0.19666667"
     inkscape:cx="534"
     inkscape:cy="600"
     inkscape:window-x="-11"
     inkscape:window-y="-11"
     inkscape:window-maximized="1"
     inkscape:current-layer="Layer_1" /><path
     d="M1055,536.5c-7.5-16.3-9-32.9-6.2-51.2c3.9-25.6-1.3-50.7-17.9-71.6c-7.8-9.9-11.6-19.7-10.6-32.1  c3.1-39-13.5-69.5-42.6-93.7c-11.1-9.1-17.9-19.7-21.2-33.6c-9-39.6-35.1-64.6-71.7-78.7c-9.3-3.6-15-8.6-19.6-17.1  c-16.6-31.3-42.6-53.3-76-63.6c-20.9-6.5-38-15.3-53.8-31C707.7,36.3,672,32.7,635.1,38.9c-8.8,1.5-14.3-0.7-21-5.9  C577.4,3.7,537-2.3,493.8,16.6c-9.6,4.2-17.3,4.7-27.6,1.1C448,11.2,428.6,3.4,410,4c-29.8,1.3-59.5,8.8-82.3,31  c-6.4,6.2-12.4,6.7-21.2,3.8c-21.8-7.3-44.3-8-67.2-2.3c-37.3,9.3-66,29.5-84.1,63.9c-2.8,5.4-5.7,10.6-13,9.6  c-32.3-4.6-61.5,4.1-89.7,19.2C16.4,148.5-3,187,6,227.1c3.1,13.7,8,27.6,14.7,39.9c16.5,29.8,41.2,48.7,77,47.8  c22.7-0.5,45.3-2.1,67.7-5.9c37.2-6,70.1,8.8,87.7,42.1c3.1,5.7,6.7,11.6,1.5,17.9c-12.2,15.2-24.5,30.2-37,45.2  c-2,2.3-5.1,4.2-8,5.2c-18.6,6-20.4,21.8-22.2,37.5c-4.2,35.2-8.2,70.6-12.1,105.8c-1.5,12.6-5.7,25.3,2.3,37.8  c4.7,0.3,9.3,0.5,13.9,0.8c5.1,0.7,10.4,0.7,15.3,2.1c14,4.2,18.7,18.3,11.9,30.8c-14.7,27.6-29.2,55.1-43,83  c-7.3,14.7-3.4,27.9,10.4,37.2c8,5.4,17,9,26.6,13.9c-0.3,13.5-4.6,27.9,3.8,41.1c1.3,2.3-0.8,7.8-2.6,10.9  c-4.7,8.2-5.7,15.8,0.2,23.6c7,9.5,3.6,17.9-2,27.1c-21.8,35.5-4.4,68.8,37.2,70.6c18.3,0.8,36,3.1,52.7,11.7  c5.5,2.8,12.7,4.2,18.7,3.4c14.8-2.3,29.5-2.1,44.2,0.7c39.6,7,47.6,18.3,41.2,55.8c-0.7,3.9-2,7.7-3.4,11.2  c-11.2,28.4-22.8,56.6-35.4,87.7c49.1,28,98,55.9,146.9,84c2.1-3.3,3.4-4.7,4.1-6.4c13.4-40.4,44.2-61.5,82.7-73.2  c39.9-12.2,79.6-8.8,118.7,4.4c14.8,5.1,18.4,3.9,23-10.9c6.5-21.7,12.6-43.7,17.8-65.7c2.3-9.1,0-17-8-24.3  c-22.2-19.7-38.6-43.9-51.5-70.4c-8.3-17-7.3-18.1,9.9-24.9c13.9-5.4,27.4-11.9,40.4-19.1c14.3-8,21.7-30.2,14-41.6  c-25.9-38.5-45.8-79.9-61.6-123.6c-3.7-9.9-3.7-18.7,0-28.2c15.8-39.1,30.2-78.7,35.1-121.1c0.3-2.8,2.9-5.2,5.1-8.6  c18.6,8.6,28.2,23.2,33.3,41.4c7.5,27.4,4.2,55.6,4.2,83.5c0,30.5,3.4,59.8,19.1,86.2c6.5,10.9,14.3,22.3,24.3,29.8  c18.3,13.5,39.1,22.8,62.1,26.7c52.2,8.6,104.2-19.7,117.7-67.5c1.8-6.4,6.8-12.6,11.9-17.1c31.1-28.7,41.6-63.9,33.1-104.5  c-2.4-11.9-0.8-21.2,3.7-31.8C1066,598.6,1069,567.8,1055,536.5z M1014.5,437.7c10.3,17.8,16.5,37.5,9.5,59.3  c-5.5,16.8-16.1,21.5-30.8,11.2c-5.1-3.4-15.3-25.4-16.6-32.3c-0.8-3.9-4.9-7-7-9.9c-0.8-20.2-19.6-28.7-26.1-44.2  c13-6.5,26.2-9.3,39.9-8.3C998.7,414.7,1008,426.6,1014.5,437.7z M976.7,323.3c15.7,20.2,20.9,42.6,14.3,68.3  c-20.1,11.1-40.4,9.9-61.1-0.3c3.4-2.3,7.5-4.9,13-8.5c-4.2-2.8-7.3-4.7-10.3-6.7c1.5-2.8,3.1-5.7,5.4-9.9h-18.3  c5.9-5.2,9.6-8.6,14.7-13c-17.9-5.4-18.1-21.8-26.2-35.5c4.7-3.1,7.3-4.9,10.1-6.5C942.9,296.9,959.1,300.4,976.7,323.3z   M849.2,212.9c13.5-14.3,20.5-15.5,37.5-4.4c21.4,13.9,37.3,31.5,40.6,58.5c2,16.3,0.7,20.2-14.8,26.1c-5.4,2.1-10.9,4.1-19.2,7.2  c-9-12.4-17.1-24.3-25.9-35.7c-9.1-11.7-18.9-23-29.5-35.9C841.9,223,845,217.3,849.2,212.9z M636.3,77.6  c9.6-10.1,20.9-13.9,35.2-10.1c17.6,4.7,33.6,11.7,48.7,22.5c10.3,7.3,11.2,17.1,11.9,26.9c0.5,8.8-2.1,17.8-3.6,27.4  c-4.2-0.5-7.8-0.8-12.6-1.3c-1.5-5.9-2.9-11.7-4.7-19.2c-4.2,1.1-7.7,2-11.4,2.9c-2.9-3.6-5.9-7.5-9.8-12.6  c-3.9,3.7-7,6.5-10.9,10.3c-2.6-4.1-5.4-8.5-9.1-14.3c-3.4,4.1-5.7,6.8-8.2,9.8c-4.6-0.7-6.5-12.2-14.8-3.1  c-4.7,5.1-12.7-0.5-13-5.7C633.5,99.9,626.8,87.7,636.3,77.6z M542.9,39.1c10.3-1.3,21.7,2.4,32.1,5.4c24,6.8,36,23.3,36.5,48.9  c-9.6,0.5-18.9,1.1-28,1.5c-1.8,0-3.7-0.5-5.2-1.5c-14.5-9.5-14.5-9.3-37.8-9.3c-3.6,0-7.2-3.9-12.7-7.2c-0.7,8.5-1.3,15-2.1,24.9  c-17.3-12.4-18.7-31.8-29.2-45.5C508.8,39.9,526.9,41,542.9,39.1z M355.4,45.1c6-4.7,13.2-8.3,20.5-10.8c26.2-8.5,52.7-7.2,77.6,4.6  c17.1,8,28.9,21.8,35.1,43.2c-13.9-2.1-26.4-4.2-39.8-6.2c-0.5,2.1-1.3,6.5-2.4,11.2c-2.1-1-4.2-1.1-5.2-2.4  c-12.6-15.8-12.4-15.7-30-3.6c-5.2,3.7-11.2,6.5-17,9.5c-5.5,3.1-11.2,5.9-20.2,10.4c-8-8.5-16.8-16.1-23.5-25.4  C342.2,64.4,344.1,53.8,355.4,45.1z M174.9,260.8c-10.4-1.8-20.7-3.6-31.1-5.5c0.2-1,0.3-2,0.3-2.9c10.9,1.5,21.7,2.8,32.4,4.2  C176,258,175.4,259.4,174.9,260.8z M162.3,206c-4.6-2.4-9.1-4.9-13.7-7.2l15.2,2.9C163.3,203.1,162.8,204.6,162.3,206z M180.3,229.5  c-4.7-1.8-9.5-3.6-14.2-5.4c0.3-0.8,0.7-1.8,1.1-2.8c4.7,1.8,9.5,3.6,14.2,5.4C180.9,227.6,180.6,228.5,180.3,229.5z M196.6,181.9  c-1-0.5-1.8-1-2.9-1.8c-1.6-1.3-3.4-3.1-6-5.2c7.2,2,14.2,3.9,21.4,5.9C202.8,183.1,200.3,183.9,196.6,181.9z M196.2,148.5  c2.4,5.5,4.4,9.6,7.2,15.7c-11.4-4.6-20.7-8.5-30.8-12.6c-0.7,1.8-1,3.4-1,4.9c0,2.3,0.8,4.1,2,5.5c2.4,2.9,6.7,4.7,9.5,7.2  c0.7,0.7,1.3,1.3,1.8,2.1c0.3,0.7,0.7,1.3,0.8,2.1c0,0,0.2,0.2,0.2,0.3c0.2,0,0.5,0.2,0.7,0.2c0.3,0.3,0.7,0.5,0.8,0.8l0.2,0.2  c-0.5-0.2-1-0.3-1.5-0.5c0-0.2,0-0.5-0.2-0.7c-9.8-2.4-19.2-4.9-28.9-7.2c-5.1-1.3-10.4-7-16.3,2c15.5,7.2,30.8,14.2,48.4,22.3  c-12.4,1.6-17.3,0.7-36.2-6.5c-11.1-4.1-21.8-9.1-35.2-3.8c6.5,3.3,13.2,6.2,19.4,9.8c0.8,0.5,1.6,1,2.4,1.6  c0.8,0.7,1.5,1.3,2.3,2.1c1.1,1.1,2.4,2.3,3.6,3.4c0.5,0.2,0.8,0.2,1.3,0.3c0.5,0.3,1,0.5,1.5,0.8l0.2,0.2c-0.7-0.2-1.5-0.3-2.1-0.5  c-0.3-0.3-0.5-0.5-0.8-0.8c-7.8-1.6-15.7-3.3-24-4.9c-2.9-0.7-5.9-1.1-9-1.8c0.7,12.9,13,11.1,17.6,18.7c-8.6,0.5-17,0.8-27.7,1.3  c7.2,12.9,17.4,15,27.1,17.6c9.1,2.4,18.6,4.4,27.6,8.6c-19.4,4.1-38.2-11.2-59.2-2.3c10.4,11.1,23.3,12.7,35.4,18.4  c-6.7,0.3-13.2,0.7-19.9,1c-0.2,1.5-0.5,2.8-0.7,4.2c9.8,3.7,19.6,7.7,29.7,11.6c-7.5,2.4-14.7,4.7-23.6,7.7  c9.5,5.1,16.6,9,27.1,14.7c-23.2,8.8-42.4,9.1-62.3,5.1c-17.6-3.6-28-16.6-38.2-28.9c-14.7-17.9-23.3-39.1-19.9-63.3  c0.7-5.1,2.3-10.3,4.9-14.5c18.3-28.7,43.5-47.3,77-55.4c38.5-9.5,74.5-2.3,109.4,14.2c0.7,0.3,0.8,2,2,4.9  C211.1,152.6,204.7,150.8,196.2,148.5z M247.8,114.9c-3.3,9-11.7,16.1-18.3,24.8c-18.3-7.5-36.5-15-56.4-23.2  c17.3-36.7,48.3-52.3,84.3-58.4c24.8-4.1,64.6,8,74.3,32.3c-7.8,3.7-13.5,8.5-24.6,5.9c-11.9-2.6-25.9-0.5-37.8,3.1  C261.4,101.5,251.7,103.5,247.8,114.9z M360.7,337.3c-45.2,22.8-89,47.3-118.5,95.2C244.8,394.3,307.1,347.6,360.7,337.3z   M230.5,444.6c31.6,15.2,63.1,30.3,94.7,45.5c33.4,16,66.8,32,100.1,48.1c4.2,2,8.2,5.1,12.1,7.5c-0.5,1.5-1.1,2.8-1.6,4.1  c-3.7-0.7-7.8-0.8-11.2-2.3c-46-21-91.8-42.4-137.8-63.4c-17.8-8.2-35.7-15.7-53.3-23.8c-7.2-3.4-13.9-8-20.7-12.1  C218.9,437.1,224.9,442,230.5,444.6z M333.2,554v-22C342.6,539.5,333.5,544.2,333.2,554z M311.7,555.8c-0.2,1.3-0.8,2.4-2.4,7.2  c-16.1-0.8-32.1-1.5-48.1-2.6c-6.7-0.5-10.6-5.9-10.3-12.1c0.5-17.3,2-34.6,2.9-51c11.2-6,17.8,1.5,25.1,4.7  C322.6,521.5,316.1,512.1,311.7,555.8z M210.3,482.4c4.9,15.7,0.8,50.4-6.8,64.6C199.7,523.3,201.1,502.6,210.3,482.4z M208.6,589.3  c-6.8-0.7-18.7,1.6-17.6-9.6c1-9.5,11.7-6,18.1-5.5c52.3,4.4,104.5,9.6,156.7,14c42.1,3.4,84,6.5,126,8.8c7.3,0.5,15.3-2.1,22.5-4.6  c8.6-3.1,11.1-11.9,10.1-19.2c-0.7-5.2-6.4-10.8-11.2-14.2c-11.4-7.8-23.8-4.4-35.4,0.2c-2.1,1-4.6,5.2-4.2,7.5  c0.3,2.4,3.4,6,5.9,6.4c6.8,1.3,14,1.1,21,1.5c0.3,1.5,0.8,2.8,1.1,4.2c-2.9,1.8-5.9,5.1-8.8,5.1c-7,0.2-14-1.3-21.2-2  c-9-0.8-14.7-5.9-15.5-14.7c-0.7-8.5,4.4-14.7,11.9-18.6c21.7-11.4,49.4-6,65.7,12.4c8,9,12.6,19.1,7.3,30.5  c-5.4,11.6-15,19.6-28.2,21.4c-7,0.8-14.3,0.5-21.4-0.2c-32.4-2.3-64.7-4.9-97-7.5C332.5,599.9,270.6,594.9,208.6,589.3z   M563.4,749.1c12.2-11.2,28.7-8.3,43.5-9.8c2.8-0.3,8,7.7,9.8,12.6c7.2,20.1,13.2,40.8,20.4,60.8c4.1,11.4,9.9,22.3,15.7,34.7  c-5.2,2.4-9.6,5.1-14.2,6.7c-20.2,7-40.8,13.2-60.8,20.7c-8.8,3.3-16.3,2.9-24.1-1.6c-11.2-6.4-22.7-12.6-35.7-19.7  c5.5-23.8,19.7-42.6,32.3-65.5c17.3,23.5,20.5,49.9,36.7,70.3C584.4,821,569.6,786.8,563.4,749.1z M630.7,740.8  c16,35.5,32.1,71.2,48.1,106.8c-0.5,1-1.1,1.8-1.6,2.8c-3.9-2.3-9.6-3.7-11.4-7C649,811.2,633,778.8,630.7,740.8z M557.9,902.2  c-21.2-5.1-39.5-12.2-57.2-28.7C527,870.9,551.2,883.1,557.9,902.2z M539.6,729.7c-9.1,19.9-20.7,38.8-32.1,57.7  c-2.8,4.6-8.2,8.3-13.2,10.8c-13.9,6.4-23.2,0.2-21.7-15.3c1.6-16.5,2-33.4,11.1-50.4c10.1,9.1,18.3,2.6,26.7-2  c0.2-0.3,0.3-0.5,0.5-0.8c0.2-0.2,0.3-0.3,0.5-0.3v-0.2c0-2.3-0.3-4.6,0.5-6.7c4.9-12.6,3.9-23.6-9.3-32.1  c13.2-2.3,18.4-0.3,18.9,8.6c0.2,2.9,0.2,5.7,0,8.6c0,2.3-0.3,4.6-0.8,6.8c-0.3,1.1-0.7,2.4-1.1,3.6c-0.5,1.5-1.1,2.9-2.1,4.4  c-0.5,1-1.1,2-2,2.8c-0.7,0.8-1.5,1.6-2.3,2.4c-0.2,0.2-0.3,0.3-0.5,0.5c-0.3,0.5-0.8,0.8-1.3,1.1v0.7c-0.3,0.2-0.7,0.3-1,0.5  c-0.8,1.6-1.8,3.3-2.8,5.1c-2.1,3.7-4.2,7.8-6.5,12.1c-1.1,2-2.4,4.2-3.6,6.4c4.1,5.1,9.1,4.7,13.2-0.8c12.6-17.1,20.9-36,22-57.4  c0.7-13-7.7-23.3-20.5-27.2c-4.2-1.1-8.6-1.6-13.7-2.8c4.2-12.1,13.5-10.1,21.4-9.5c10.9,1,18.6,8.3,20.7,18.1  C544.8,692.7,547.9,712.1,539.6,729.7z M503.4,635.3c4.6-1.1,9.1-2.3,13.7-3.4c0.5,1,1,2,1.5,3.1c-3.3,1.6-6.4,3.6-9.8,4.7  C507.5,640.2,505.5,638.9,503.4,635.3z M293.9,912.6c-2.8,8.2-8.2,12.9-17.4,12.6c-8.5-0.3-17.3,2-25.4,0.3  c-8.5-1.6-18.4-4.6-24.1-10.4c-16.5-17-10.1-38.2,14.2-46.1c-1.8-7.8-3.6-16-5.7-25.3c3.1-3.4,7-7.5,11.4-12.1c-2-0.8-3.8-2-5.1-1.8  c-5.9,1.5-9.6-1-8.5-6.7c0.5-2.8,4.9-7,7.5-6.8c17.1,0.7,35.7-3.6,48.7,14.8c7.7-17-4.1-24.3-13.2-33.7c-2.6,3.9-4.2,8.6-7.3,10.1  c-2.8,1.5-7.5-0.2-11.1-1.3c-6.2-2-12.2-4.6-18.1-7.2c-5.4-2.3-11.1-3.9-11.1-11.7c0.2-8,5.2-11.2,11.6-14  c5.9-2.4,12.2-4.6,17.9-7.7c22.7-11.9,23.8-18.4,6.7-38c-2-2.3-4.6-4.1-10.1-4.2c1.6,4.1,3.1,8.3,5.1,12.2  c6.8,13,3.9,18.9-10.1,18.1c-14.2-0.8-28.5-2-42.6-4.4c-15.2-2.4-20.4-12.4-13.9-26.9c9.9-22.7,20.5-44.8,31.3-67  c6.5-13.4,15.3-15.5,25.6-5.1c6.2,6.2,9.9,14.7,15.5,23.3c20.1-3.6,40.4-20.4,63.6,2.4c0-17.1-14-17-15.8-25.8  c7-11.4,17.6-13.5,27.6-4.6c5.2,4.7,8.6,11.4,13,17c3.8,4.7,8,9.1,11.9,13.7c1.5-1,3.1-1.8,4.7-2.6c-2.3-8.8-4.6-17.4-6.8-26.6  c15.7,1.6,15.7,1.6,40.4,30.2c-23.5,34.2-53.5,60.8-86.2,87.2c16.1,13.5,14.8,30.5,9.9,46.6C317.5,845.3,305.5,878.9,293.9,912.6z   M331.1,916.1c-2.4,8-6,15.5-9.1,23.3c-15.8-6.5-17-8.6-11.9-20.9c13.4-32.9,27.6-65.7,39.9-99.1c6.8-18.1,10.6-37.3,16.1-55.9  c2-6.7,4.2-14,8.5-19.2c23.8-29,48.1-57.6,72.4-86.2c0.3-0.3,1.1-0.3,4.9-1.1c-12.1,27.6-30.5,47.6-46.1,69.6  c-4.6,6.2-10.8,11.2-15,17.6c-4.9,7.5-9.9,15.3-12.6,23.6C362.2,817.1,346.9,866.7,331.1,916.1z M431.2,739.3  c-6.8,32.9-12.7,61.1-18.6,89.7c-11.4,5.4-21.8,3.3-34.7-0.7c4.1-19.1,5.5-39,13-56.2C397.1,757.8,407.4,742.9,431.2,739.3z   M347.9,930.6c4.9,0.5,9.9,1,18.9,2C354.1,937.3,354.1,937.3,347.9,930.6z M359.4,912.5c0-0.5-0.2-0.8-0.2-1.3h15.8  c0,0.5,0,0.8,0.2,1.3H359.4z M383.4,893.4h-12.7v-1.8c4.4-0.2,8.8-0.3,13.2-0.7C383.7,891.8,383.6,892.6,383.4,893.4z M405.7,933.2  c-1.8,4.1-4.1,7.8-6.7,12.7c-6.5-4.9-4.1-9.6-2.6-14.3c9.8-30.8,19.9-61.6,29-92.8c9.3-31.6,17.8-63.6,26.2-95.5  c8.3-32,16-64.1,24.1-96c0.5-2.1,2.1-4.1,3.3-6.2c1.1,0,2.4,0.2,3.6,0.2c0.3,6,1.8,12.2,0.7,17.9c-9,42.6-17.1,85.1-27.9,127.2  C442.7,836.5,427.6,886.1,405.7,933.2z M505.8,1156.1c-2.6,0.2-4.1,0.8-5.1,0.3c-29-9.3-31.1-16.5-12.7-39.8c2-2.6,4.2-5.1,6.5-7.2  c1.3-1.3,3.3-2,8.8-5.2c6,11.9,11.2,22.5,16.3,32.9C514.3,1144.5,509.8,1150.7,505.8,1156.1z M538,1119.4  c-5.7-10.9-10.8-20.4-16-30.3c9.6-15,24.5-21,39.6-26.2c8-2.8,14.2,0.2,17.3,7.8c3.1,7.7,5.1,15.7,7.8,24.6  C569.1,1104,554.3,1111.4,538,1119.4z M650.3,1089.4c-7.5,0.3-13.2,0.7-18.7,1c-22,1.1-27.4-3.6-29.7-25.8  c-0.7-7.7,1.6-12.7,10.1-13.2c5.1-0.3,10.3-1.1,15.3-0.8c7,0.2,13.9,1.1,23,2.1V1089.4z M730.3,1076.3c-1.8,8-4.6,16-7.2,24.8  c-5.7-1-10.6-2-15.7-2.8c-28.7-5.5-32.3-11.6-24-43.5c13.7,2.9,26.2,5.4,38.8,8.2C729.5,1064.6,731.8,1069.8,730.3,1076.3z   M717.6,1012.7c6,6,11.7,12.2,18.1,17.8c6.4,5.2,8.6,10.9,4.1,20.5c-22.3-4.6-43.7-10.3-65.5-13.2c-55.4-7.3-109.4-3.3-157.8,28  c-20.9,13.5-38.6,30.8-50.7,53.1c-6.7,12.1-8.5,12.9-19.2,6.7c-16.3-9.5-32.1-19.4-50.9-30.8c39.8-43.7,66.5-93.7,91.8-145.1  c4.9,20.1-3.9,39.1-5.7,62.3c12.4-11.6,22.7-20.9,32.4-30.6c23.5-23.2,51.7-39.1,81-53.6c6.4-3.1,12.7-6.4,18.9-9.8  c17.6-9.8,45.8-3.1,54.8,17.6C680.8,963.7,695.8,990.6,717.6,1012.7z M696.9,913.8c8-8.5,17.3-15.2,29-15.8c0.5,1.3,1.1,2.6,1.6,3.9  C717.3,905.8,707.2,909.9,696.9,913.8z M686.3,881.8c-18.6,1.8-37.2,4.4-55.6,7.8c-18.6,3.4-36.8,8.5-55.1,12.7  c-0.5-1.8-1.1-3.4-1.6-5.1c9.3-12.4,25.4-13,38.5-16.5c42.9-11.6,86.2-21.2,130.3-3.3C724.5,887.4,705.1,880.2,686.3,881.8z   M708.5,850.2c-5.1-1.6-9-2-11.1-4.1c-3.3-2.9-5.9-7-7.7-11.1c-11.6-28.9-23-57.7-34.2-86.7c-1.3-3.6-0.7-8-1-12.1  c1.3-0.3,2.6-0.5,4.1-0.8C674.7,772.8,691.1,810.3,708.5,850.2z M717,580.9c-3.6,39.5-18.3,75.5-39,108.9c-3.3,5.1-8.5,10.8-14,12.2  c-24.3,6.7-49.1,12.2-73.7,17.8c-5.5,1.3-11.4,1.1-17,1.5c-3.3-17.8-5.9-34.2-9.3-50.5c-3.7-17.1-16.5-27.2-34.7-37.7  c16.5-0.7,29-1.3,41.6-1.6c16.3-0.5,17.3-1.3,19.1-17.3c0.3-2.6,0.2-5.4,1-7.7c3.7-9.5-0.3-14.7-8.8-18.3  c-12.2-5.2-21-12.4-25.8-26.6c-7.7-22.7-28.5-31.5-50.4-34.6c-13.9-2-28.4,1-42.6,1.1c-6.8,0.2-14.7,1.3-20.4-1.3  c-56.1-25.8-111.7-52.2-167.4-78.4c-2.9-1.3-5.1-3.8-9.3-7c5.1-7.2,9.5-14.3,14.7-20.5c23.8-28.4,55.1-47.3,85.9-66.7  c12.4-7.7,12.6-7.5,7.8-22.8c43.2-32,174-19.7,223.8,21.8c-15,0-28.9,0.2-42.7-0.2c-38.8-1-76.8,2.6-109.2,26.2  c-21.8,16-43.9,32.6-58,59.3c7.2,4.9,13.9,9.6,20.9,14c26.9,17.1,53.8,33.9,80.7,50.9c7,4.4,13.7,10.6,23.8,5.4  c2-24.1-6.2-51.7,17.9-70.1c15.2-11.6,31.5-20.4,56.2-17.3c-7.8,5.9-12.9,9.1-17.4,13c-9.5,8.8-19.2,17.3-27.6,26.9  c-5.1,6-12.4,13.7-4.6,22.5c7.3,8.2,15.7,16.5,28.4,13.5c10.8-2.6,21.4-5.7,31.8-9.5c26.9-9.3,51.7,0,65.7,25.6  c15.7,28.2,18.7,57.7,7.5,88.4c-2.8,7.5-9.9,17.1,2.6,21.2c10.8,3.4,10.6-8.3,14.2-14.7c12.2-21.5,14.2-45.7,18.6-69.1  c0.5-2.4,1.3-4.9,2.1-7.3c0-0.5,1.1-0.7,3.4-1.6C721.1,546.8,718.4,564.2,717,580.9z M741.3,542.5c-10.6-55.9-32.9-106.1-66.8-152  c-39.6-53.5-92.8-82.8-157.3-94.9c-53.6-10.1-104.8-2.4-154.7,16.3c-23,8.5-45,19.9-66.8,31.1c-8.3,4.2-14.5,4.9-20.5-2.4  c-3.3-3.9-6.5-7.8-11.2-13.5c24.3-26.6,52.2-43.5,83.6-55.1c56.2-20.7,113.8-23.6,172.3-13c14.7,2.8,30.2,2.4,43.9,7.3  c18.1,6.5,36.4,14.8,51.7,26.2c73.7,53.6,121.1,125.4,141.2,214.6c3.4,15.7,5.4,31.8,8.2,47.6C746.6,559.5,744.4,558.4,741.3,542.5z   M795.7,186.6c0,0-3.1,0-6.2,0c-0.2-8.3-2.3-12.1-15.2-26.7c-2,1.5-4.1,3.1-6,4.6c-1.5,1.3-2.8,2.6-5.7,5.2  c-1.1-5.1-2.1-9.1-3.3-14.2c-3.9,0.5-8,0.8-12.9,1.3c0-8.5-0.7-16.3,0.2-24c1.3-13.5,7.3-17.9,20.9-15c25.1,5.5,47.9,15.7,64.2,36.8  c12.6,16.3,13,28.9,2,46c-3.3,4.7-7.5,8.8-13.9,16.3C811,206,804,197.2,795.7,186.6z M973.1,784.2c-10.6,22.7-28.2,37.3-52,43.7  c-36.8,9.9-81.2-10.3-100.9-44.8c8.8-17.6,11.6-10.4,48.4-16.1c1-2.9,2-5.9,2.9-9c1.5-0.2,2.6-0.7,3.7-0.5c4.1,1.3,6.4,7,13,1  c4.7-4.2,13.4-5.9,20.2-8.8c6.7-2.8,15.2-1.6,24.8-2.4c0.5-6.2,1-11.1,1.6-16.6c2.4,0.8,4.6,1,5.9,2.1c9.3,8.2,18.3,16.8,27.4,24.9  C976.7,765.3,977.7,774.1,973.1,784.2z M1015,731c-11.7,17-17.1,18.3-35.7,9.6c-3.4-1.5-6-4.4-10.4-7.8c4.4-2.6,7.7-4.7,11.1-6.8  c1.6-5.4-11.7-12.7,2.1-16.3c0.5-0.2,0.8-5.2-0.3-6.5c-8.2-8.2,5.1-7.7,4.7-14.3c-2.4-3.1-5.9-7.5-9.8-12.6  c5.1-0.7,8.8-1.1,12.4-1.6c2.4-17.9,2.4-17.9-6.5-30.3c30-1.6,45,12.4,45.8,41.2C1028.7,702.3,1024.3,717.5,1015,731z M1028.5,619  c-8.2,15.5-10.8,16.8-27.1,9.5c-1.8-0.8-3.4-2-7.7-4.6c2.3-7.2,4.4-13.7,7.2-22.5c-0.8-1-3.3-4.6-6-8.5c3.9-2.4,6.8-4.2,10.4-6.5  c-2.9-3.9-5.4-7.5-8.2-10.9c3.3-2,6-3.4,9.9-5.7c-2.3-6.7-15.7-11.1-5.2-20.2c0-0.5-4.9-6.5-7.5-10.1c7.3-10.8,13.9-13.5,22.7-6  c7.3,6.5,14.5,15.8,16.8,24.9C1038.5,578.6,1038.8,599.4,1028.5,619z"
     id="path2"
     style="fill:#f2f2f2" /></svg>